{
  "products": [
    {
      "stok": 11,
      "harga": "14",
      "id": 1
    },
    {
      "stok": 78,
      "harga": "14",
      "id": 2
    },
    {
      "stok": 26,
      "harga": "12",
      "id": 3
    },
    {
      "stok": 16,
      "harga": "11",
      "id": 4
    },
    {
      "stok": 100,
      "harga": "10",
      "id": 5
    },
    {
      "stok": 30,
      "harga": "9",
      "id": 6
    }
  ]
}